  [1m[36m (2.3ms)[0m  [1mCREATE TABLE "schema_migrations" ("version" varchar(255) NOT NULL) [0m
  [1m[35m (24.6ms)[0m  select sqlite_version(*)
  [1m[36m (1.8ms)[0m  [1mCREATE UNIQUE INDEX "unique_schema_migrations" ON "schema_migrations" ("version")[0m
  [1m[35mActiveRecord::SchemaMigration Load (0.1ms)[0m  SELECT "schema_migrations".* FROM "schema_migrations"
Migrating to CreatePosts (20140418101350)
  [1m[36m (0.1ms)[0m  [1mbegin transaction[0m
  [1m[35m (0.6ms)[0m  CREATE TABLE "posts" ("id" INTEGER PRIMARY KEY AUTOINCREMENT NOT NULL, "title" varchar(255), "body" text, "created_at" datetime, "updated_at" datetime) 
  [1m[36mSQL (0.3ms)[0m  [1mINSERT INTO "schema_migrations" ("version") VALUES (?)[0m  [["version", "20140418101350"]]
  [1m[35m (1.8ms)[0m  commit transaction
Migrating to CreateComments (20140418101556)
  [1m[36m (0.1ms)[0m  [1mbegin transaction[0m
  [1m[35m (0.3ms)[0m  CREATE TABLE "comments" ("id" INTEGER PRIMARY KEY AUTOINCREMENT NOT NULL, "post_id" integer, "body" text, "created_at" datetime, "updated_at" datetime) 
  [1m[36mSQL (0.1ms)[0m  [1mINSERT INTO "schema_migrations" ("version") VALUES (?)[0m  [["version", "20140418101556"]]
  [1m[35m (1.7ms)[0m  commit transaction
  [1m[36mActiveRecord::SchemaMigration Load (0.1ms)[0m  [1mSELECT "schema_migrations".* FROM "schema_migrations"[0m


Started GET "/" for 127.0.0.1 at 2014-04-18 18:20:47 +0800
  [1m[36mActiveRecord::SchemaMigration Load (15.4ms)[0m  [1mSELECT "schema_migrations".* FROM "schema_migrations"[0m
Processing by Rails::WelcomeController#index as HTML
  Rendered /Users/jerryee/.rvm/gems/ruby-2.1.1@global/gems/railties-4.1.0/lib/rails/templates/rails/welcome/index.html.erb (3.3ms)
Completed 200 OK in 62ms (Views: 40.7ms | ActiveRecord: 0.0ms)


Started GET "/" for 127.0.0.1 at 2014-04-18 18:21:24 +0800
Processing by Rails::WelcomeController#index as HTML
  Rendered /Users/jerryee/.rvm/gems/ruby-2.1.1@global/gems/railties-4.1.0/lib/rails/templates/rails/welcome/index.html.erb (0.0ms)
Completed 200 OK in 1ms (Views: 1.0ms | ActiveRecord: 0.0ms)


Started GET "/" for 127.0.0.1 at 2014-04-18 18:21:24 +0800
Processing by Rails::WelcomeController#index as HTML
  Rendered /Users/jerryee/.rvm/gems/ruby-2.1.1@global/gems/railties-4.1.0/lib/rails/templates/rails/welcome/index.html.erb (0.1ms)
Completed 200 OK in 1ms (Views: 1.0ms | ActiveRecord: 0.0ms)


Started GET "/posts" for 127.0.0.1 at 2014-04-18 18:21:29 +0800
Processing by PostsController#index as HTML
  [1m[35mPost Load (10.7ms)[0m  SELECT "posts".* FROM "posts"
  Rendered posts/index.html.erb within layouts/application (12.9ms)
Completed 200 OK in 1295ms (Views: 1278.9ms | ActiveRecord: 10.7ms)


Started GET "/assets/posts.css?body=1" for 127.0.0.1 at 2014-04-18 18:21:30 +0800


Started GET "/assets/comments.css?body=1" for 127.0.0.1 at 2014-04-18 18:21:30 +0800


Started GET "/assets/scaffolds.css?body=1" for 127.0.0.1 at 2014-04-18 18:21:30 +0800


Started GET "/assets/jquery.js?body=1" for 127.0.0.1 at 2014-04-18 18:21:30 +0800


Started GET "/assets/jquery_ujs.js?body=1" for 127.0.0.1 at 2014-04-18 18:21:30 +0800


Started GET "/assets/application.css?body=1" for 127.0.0.1 at 2014-04-18 18:21:30 +0800


Started GET "/assets/comments.js?body=1" for 127.0.0.1 at 2014-04-18 18:21:30 +0800


Started GET "/assets/turbolinks.js?body=1" for 127.0.0.1 at 2014-04-18 18:21:30 +0800


Started GET "/assets/application.js?body=1" for 127.0.0.1 at 2014-04-18 18:21:30 +0800


Started GET "/assets/posts.js?body=1" for 127.0.0.1 at 2014-04-18 18:21:30 +0800


Started GET "/posts/new" for 127.0.0.1 at 2014-04-18 18:21:33 +0800
Processing by PostsController#new as HTML
  Rendered posts/_form.html.erb (114.6ms)
  Rendered posts/new.html.erb within layouts/application (131.8ms)
Completed 200 OK in 175ms (Views: 173.1ms | ActiveRecord: 0.3ms)


Started POST "/posts" for 127.0.0.1 at 2014-04-18 18:21:42 +0800
Processing by PostsController#create as HTML
  Parameters: {"utf8"=>"✓", "authenticity_token"=>"1uiUr9nXZLhKsoPPkWCws+b7rrT7CeSfB/kqnw6xMso=", "post"=>{"title"=>"My New Post", "body"=>"Hello All"}, "commit"=>"Create Post"}
  [1m[36m (0.1ms)[0m  [1mbegin transaction[0m
  [1m[35mSQL (43.2ms)[0m  INSERT INTO "posts" ("body", "created_at", "title", "updated_at") VALUES (?, ?, ?, ?)  [["body", "Hello All"], ["created_at", "2014-04-18 10:21:42.522886"], ["title", "My New Post"], ["updated_at", "2014-04-18 10:21:42.522886"]]
  [1m[36m (26.8ms)[0m  [1mcommit transaction[0m
Redirected to http://localhost:3000/posts/1
Completed 302 Found in 92ms (ActiveRecord: 70.1ms)


Started GET "/posts/1" for 127.0.0.1 at 2014-04-18 18:21:42 +0800
Processing by PostsController#show as HTML
  Parameters: {"id"=>"1"}
  [1m[35mPost Load (0.2ms)[0m  SELECT  "posts".* FROM "posts"  WHERE "posts"."id" = ? LIMIT 1  [["id", 1]]
  Rendered posts/show.html.erb within layouts/application (1.1ms)
Completed 200 OK in 33ms (Views: 31.4ms | ActiveRecord: 0.2ms)


Started GET "/" for 127.0.0.1 at 2014-04-18 18:22:40 +0800
Processing by Rails::WelcomeController#index as HTML
  Rendered /Users/jerryee/.rvm/gems/ruby-2.1.1@global/gems/railties-4.1.0/lib/rails/templates/rails/welcome/index.html.erb (0.0ms)
Completed 200 OK in 1ms (Views: 0.9ms | ActiveRecord: 0.0ms)


Started GET "/comments" for 127.0.0.1 at 2014-04-18 18:22:43 +0800
Processing by CommentsController#index as HTML
  [1m[36mComment Load (0.2ms)[0m  [1mSELECT "comments".* FROM "comments"[0m
  Rendered comments/index.html.erb within layouts/application (1.5ms)
Completed 200 OK in 10ms (Views: 7.3ms | ActiveRecord: 0.2ms)


Started GET "/assets/comments.css?body=1" for 127.0.0.1 at 2014-04-18 18:22:43 +0800


Started GET "/assets/jquery.js?body=1" for 127.0.0.1 at 2014-04-18 18:22:43 +0800


Started GET "/assets/turbolinks.js?body=1" for 127.0.0.1 at 2014-04-18 18:22:43 +0800


Started GET "/assets/scaffolds.css?body=1" for 127.0.0.1 at 2014-04-18 18:22:43 +0800


Started GET "/assets/comments.js?body=1" for 127.0.0.1 at 2014-04-18 18:22:43 +0800


Started GET "/assets/jquery_ujs.js?body=1" for 127.0.0.1 at 2014-04-18 18:22:43 +0800


Started GET "/assets/posts.css?body=1" for 127.0.0.1 at 2014-04-18 18:22:43 +0800


Started GET "/assets/application.css?body=1" for 127.0.0.1 at 2014-04-18 18:22:43 +0800


Started GET "/assets/posts.js?body=1" for 127.0.0.1 at 2014-04-18 18:22:43 +0800


Started GET "/assets/application.js?body=1" for 127.0.0.1 at 2014-04-18 18:22:43 +0800


Started GET "/comments/new" for 127.0.0.1 at 2014-04-18 18:22:45 +0800
Processing by CommentsController#new as HTML
  Rendered comments/_form.html.erb (18.6ms)
  Rendered comments/new.html.erb within layouts/application (21.2ms)
Completed 200 OK in 61ms (Views: 58.9ms | ActiveRecord: 0.5ms)


Started POST "/comments" for 127.0.0.1 at 2014-04-18 18:22:55 +0800
Processing by CommentsController#create as HTML
  Parameters: {"utf8"=>"✓", "authenticity_token"=>"1uiUr9nXZLhKsoPPkWCws+b7rrT7CeSfB/kqnw6xMso=", "comment"=>{"post_id"=>"1", "body"=>"Hi you noob."}, "commit"=>"Create Comment"}
  [1m[35m (0.1ms)[0m  begin transaction
  [1m[36mSQL (0.4ms)[0m  [1mINSERT INTO "comments" ("body", "created_at", "post_id", "updated_at") VALUES (?, ?, ?, ?)[0m  [["body", "Hi you noob."], ["created_at", "2014-04-18 10:22:55.110195"], ["post_id", 1], ["updated_at", "2014-04-18 10:22:55.110195"]]
  [1m[35m (12.0ms)[0m  commit transaction
Redirected to http://localhost:3000/comments/1
Completed 302 Found in 17ms (ActiveRecord: 12.6ms)


Started GET "/comments/1" for 127.0.0.1 at 2014-04-18 18:22:55 +0800
Processing by CommentsController#show as HTML
  Parameters: {"id"=>"1"}
  [1m[36mComment Load (0.2ms)[0m  [1mSELECT  "comments".* FROM "comments"  WHERE "comments"."id" = ? LIMIT 1[0m  [["id", 1]]
  Rendered comments/show.html.erb within layouts/application (1.1ms)
Completed 200 OK in 40ms (Views: 38.7ms | ActiveRecord: 0.2ms)


Started GET "/assets/comments.css?body=1" for 127.0.0.1 at 2014-04-18 18:22:55 +0800


Started GET "/assets/application.css?body=1" for 127.0.0.1 at 2014-04-18 18:22:55 +0800


Started GET "/assets/jquery.js?body=1" for 127.0.0.1 at 2014-04-18 18:22:55 +0800


Started GET "/assets/turbolinks.js?body=1" for 127.0.0.1 at 2014-04-18 18:22:55 +0800


Started GET "/assets/posts.css?body=1" for 127.0.0.1 at 2014-04-18 18:22:55 +0800


Started GET "/assets/comments.js?body=1" for 127.0.0.1 at 2014-04-18 18:22:55 +0800


Started GET "/assets/jquery_ujs.js?body=1" for 127.0.0.1 at 2014-04-18 18:22:55 +0800


Started GET "/assets/scaffolds.css?body=1" for 127.0.0.1 at 2014-04-18 18:22:55 +0800


Started GET "/assets/posts.js?body=1" for 127.0.0.1 at 2014-04-18 18:22:55 +0800


Started GET "/assets/application.js?body=1" for 127.0.0.1 at 2014-04-18 18:22:55 +0800


Started GET "/comments/1" for 127.0.0.1 at 2014-04-18 18:23:00 +0800
Processing by CommentsController#show as HTML
  Parameters: {"id"=>"1"}
  [1m[35mComment Load (0.1ms)[0m  SELECT  "comments".* FROM "comments"  WHERE "comments"."id" = ? LIMIT 1  [["id", 1]]
  Rendered comments/show.html.erb within layouts/application (0.3ms)
Completed 200 OK in 6ms (Views: 4.3ms | ActiveRecord: 0.1ms)


Started GET "/comments/1" for 127.0.0.1 at 2014-04-18 18:23:00 +0800
Processing by CommentsController#show as HTML
  Parameters: {"id"=>"1"}
  [1m[36mComment Load (0.1ms)[0m  [1mSELECT  "comments".* FROM "comments"  WHERE "comments"."id" = ? LIMIT 1[0m  [["id", 1]]
  Rendered comments/show.html.erb within layouts/application (0.3ms)
Completed 200 OK in 5ms (Views: 4.2ms | ActiveRecord: 0.1ms)


Started GET "/assets/posts.css?body=1" for 127.0.0.1 at 2014-04-18 18:23:00 +0800


Started GET "/assets/scaffolds.css?body=1" for 127.0.0.1 at 2014-04-18 18:23:00 +0800


Started GET "/assets/turbolinks.js?body=1" for 127.0.0.1 at 2014-04-18 18:23:00 +0800


Started GET "/assets/comments.css?body=1" for 127.0.0.1 at 2014-04-18 18:23:00 +0800


Started GET "/assets/jquery_ujs.js?body=1" for 127.0.0.1 at 2014-04-18 18:23:00 +0800


Started GET "/assets/application.css?body=1" for 127.0.0.1 at 2014-04-18 18:23:00 +0800


Started GET "/assets/comments.js?body=1" for 127.0.0.1 at 2014-04-18 18:23:00 +0800


Started GET "/assets/application.js?body=1" for 127.0.0.1 at 2014-04-18 18:23:00 +0800


Started GET "/assets/jquery.js?body=1" for 127.0.0.1 at 2014-04-18 18:23:00 +0800


Started GET "/assets/posts.js?body=1" for 127.0.0.1 at 2014-04-18 18:23:00 +0800


Started GET "/comments" for 127.0.0.1 at 2014-04-18 18:23:01 +0800
Processing by CommentsController#index as HTML
  [1m[35mComment Load (0.1ms)[0m  SELECT "comments".* FROM "comments"
  Rendered comments/index.html.erb within layouts/application (1.2ms)
Completed 200 OK in 6ms (Views: 5.3ms | ActiveRecord: 0.1ms)


Started GET "/assets/comments.css?body=1" for 127.0.0.1 at 2014-04-18 18:23:01 +0800


Started GET "/assets/application.css?body=1" for 127.0.0.1 at 2014-04-18 18:23:01 +0800


Started GET "/assets/posts.css?body=1" for 127.0.0.1 at 2014-04-18 18:23:01 +0800


Started GET "/assets/jquery_ujs.js?body=1" for 127.0.0.1 at 2014-04-18 18:23:01 +0800


Started GET "/assets/jquery.js?body=1" for 127.0.0.1 at 2014-04-18 18:23:01 +0800


Started GET "/assets/scaffolds.css?body=1" for 127.0.0.1 at 2014-04-18 18:23:01 +0800


Started GET "/assets/comments.js?body=1" for 127.0.0.1 at 2014-04-18 18:23:01 +0800


Started GET "/assets/turbolinks.js?body=1" for 127.0.0.1 at 2014-04-18 18:23:01 +0800


Started GET "/assets/posts.js?body=1" for 127.0.0.1 at 2014-04-18 18:23:01 +0800


Started GET "/assets/application.js?body=1" for 127.0.0.1 at 2014-04-18 18:23:01 +0800


Started GET "/comments/1" for 127.0.0.1 at 2014-04-18 18:23:01 +0800
Processing by CommentsController#show as HTML
  Parameters: {"id"=>"1"}
  [1m[36mComment Load (0.1ms)[0m  [1mSELECT  "comments".* FROM "comments"  WHERE "comments"."id" = ? LIMIT 1[0m  [["id", 1]]
  Rendered comments/show.html.erb within layouts/application (0.4ms)
Completed 200 OK in 7ms (Views: 5.8ms | ActiveRecord: 0.1ms)


Started GET "/comments/1" for 127.0.0.1 at 2014-04-18 18:23:01 +0800
Processing by CommentsController#show as HTML
  Parameters: {"id"=>"1"}
  [1m[35mComment Load (0.1ms)[0m  SELECT  "comments".* FROM "comments"  WHERE "comments"."id" = ? LIMIT 1  [["id", 1]]
  Rendered comments/show.html.erb within layouts/application (0.3ms)
Completed 200 OK in 6ms (Views: 4.4ms | ActiveRecord: 0.1ms)


Started GET "/assets/posts.css?body=1" for 127.0.0.1 at 2014-04-18 18:23:01 +0800


Started GET "/assets/application.css?body=1" for 127.0.0.1 at 2014-04-18 18:23:01 +0800


Started GET "/assets/scaffolds.css?body=1" for 127.0.0.1 at 2014-04-18 18:23:01 +0800


Started GET "/assets/jquery_ujs.js?body=1" for 127.0.0.1 at 2014-04-18 18:23:01 +0800


Started GET "/assets/comments.css?body=1" for 127.0.0.1 at 2014-04-18 18:23:01 +0800


Started GET "/assets/jquery.js?body=1" for 127.0.0.1 at 2014-04-18 18:23:01 +0800


Started GET "/assets/turbolinks.js?body=1" for 127.0.0.1 at 2014-04-18 18:23:01 +0800


Started GET "/assets/comments.js?body=1" for 127.0.0.1 at 2014-04-18 18:23:01 +0800


Started GET "/assets/application.js?body=1" for 127.0.0.1 at 2014-04-18 18:23:01 +0800


Started GET "/assets/posts.js?body=1" for 127.0.0.1 at 2014-04-18 18:23:01 +0800


Started GET "/" for 127.0.0.1 at 2014-04-18 18:23:02 +0800
Processing by Rails::WelcomeController#index as HTML
  Rendered /Users/jerryee/.rvm/gems/ruby-2.1.1@global/gems/railties-4.1.0/lib/rails/templates/rails/welcome/index.html.erb (0.0ms)
Completed 200 OK in 1ms (Views: 0.9ms | ActiveRecord: 0.0ms)


Started GET "/posts" for 127.0.0.1 at 2014-04-18 18:23:03 +0800
Processing by PostsController#index as HTML
  [1m[36mPost Load (0.2ms)[0m  [1mSELECT "posts".* FROM "posts"[0m
  Rendered posts/index.html.erb within layouts/application (1.6ms)
Completed 200 OK in 24ms (Views: 23.4ms | ActiveRecord: 0.2ms)


Started GET "/assets/comments.css?body=1" for 127.0.0.1 at 2014-04-18 18:23:03 +0800


Started GET "/assets/posts.css?body=1" for 127.0.0.1 at 2014-04-18 18:23:03 +0800


Started GET "/assets/jquery_ujs.js?body=1" for 127.0.0.1 at 2014-04-18 18:23:03 +0800


Started GET "/assets/scaffolds.css?body=1" for 127.0.0.1 at 2014-04-18 18:23:03 +0800


Started GET "/assets/jquery.js?body=1" for 127.0.0.1 at 2014-04-18 18:23:03 +0800


Started GET "/assets/application.css?body=1" for 127.0.0.1 at 2014-04-18 18:23:03 +0800


Started GET "/assets/turbolinks.js?body=1" for 127.0.0.1 at 2014-04-18 18:23:03 +0800


Started GET "/assets/comments.js?body=1" for 127.0.0.1 at 2014-04-18 18:23:03 +0800


Started GET "/assets/posts.js?body=1" for 127.0.0.1 at 2014-04-18 18:23:03 +0800


Started GET "/assets/application.js?body=1" for 127.0.0.1 at 2014-04-18 18:23:03 +0800


Started GET "/posts" for 127.0.0.1 at 2014-04-18 18:23:03 +0800
Processing by PostsController#index as HTML
  [1m[35mPost Load (0.1ms)[0m  SELECT "posts".* FROM "posts"
  Rendered posts/index.html.erb within layouts/application (1.1ms)
Completed 200 OK in 6ms (Views: 5.2ms | ActiveRecord: 0.1ms)


Started GET "/assets/comments.css?body=1" for 127.0.0.1 at 2014-04-18 18:23:03 +0800


Started GET "/assets/posts.css?body=1" for 127.0.0.1 at 2014-04-18 18:23:03 +0800


Started GET "/assets/jquery_ujs.js?body=1" for 127.0.0.1 at 2014-04-18 18:23:03 +0800


Started GET "/assets/application.css?body=1" for 127.0.0.1 at 2014-04-18 18:23:03 +0800


Started GET "/assets/jquery.js?body=1" for 127.0.0.1 at 2014-04-18 18:23:03 +0800


Started GET "/assets/scaffolds.css?body=1" for 127.0.0.1 at 2014-04-18 18:23:03 +0800


Started GET "/assets/turbolinks.js?body=1" for 127.0.0.1 at 2014-04-18 18:23:03 +0800


Started GET "/assets/comments.js?body=1" for 127.0.0.1 at 2014-04-18 18:23:03 +0800


Started GET "/assets/application.js?body=1" for 127.0.0.1 at 2014-04-18 18:23:03 +0800


Started GET "/assets/posts.js?body=1" for 127.0.0.1 at 2014-04-18 18:23:03 +0800


Started GET "/posts/1" for 127.0.0.1 at 2014-04-18 18:23:09 +0800
Processing by PostsController#show as HTML
  Parameters: {"id"=>"1"}
  [1m[36mPost Load (0.2ms)[0m  [1mSELECT  "posts".* FROM "posts"  WHERE "posts"."id" = ? LIMIT 1[0m  [["id", 1]]
  Rendered posts/show.html.erb within layouts/application (1.3ms)
Completed 200 OK in 42ms (Views: 40.3ms | ActiveRecord: 0.2ms)


Started GET "/posts" for 127.0.0.1 at 2014-04-18 18:23:11 +0800
Processing by PostsController#index as HTML
  [1m[35mPost Load (0.2ms)[0m  SELECT "posts".* FROM "posts"
  Rendered posts/index.html.erb within layouts/application (6.9ms)
Completed 200 OK in 12ms (Views: 11.4ms | ActiveRecord: 0.2ms)


Started GET "/posts" for 127.0.0.1 at 2014-04-18 18:45:30 +0800
Processing by PostsController#index as HTML
  [1m[36mPost Load (34.0ms)[0m  [1mSELECT "posts".* FROM "posts"[0m
  Rendered posts/index.html.erb within layouts/application (91.6ms)
Completed 200 OK in 184ms (Views: 105.5ms | ActiveRecord: 34.0ms)


Started GET "/assets/comments.css?body=1" for 127.0.0.1 at 2014-04-18 18:45:30 +0800


Started GET "/assets/posts.css?body=1" for 127.0.0.1 at 2014-04-18 18:45:30 +0800


Started GET "/assets/scaffolds.css?body=1" for 127.0.0.1 at 2014-04-18 18:45:30 +0800


Started GET "/assets/application.css?body=1" for 127.0.0.1 at 2014-04-18 18:45:30 +0800


Started GET "/assets/jquery_ujs.js?body=1" for 127.0.0.1 at 2014-04-18 18:45:30 +0800


Started GET "/assets/comments.js?body=1" for 127.0.0.1 at 2014-04-18 18:45:30 +0800


Started GET "/assets/turbolinks.js?body=1" for 127.0.0.1 at 2014-04-18 18:45:30 +0800


Started GET "/assets/jquery.js?body=1" for 127.0.0.1 at 2014-04-18 18:45:30 +0800


Started GET "/assets/posts.js?body=1" for 127.0.0.1 at 2014-04-18 18:45:30 +0800


Started GET "/assets/application.js?body=1" for 127.0.0.1 at 2014-04-18 18:45:30 +0800
  [1m[36mPost Load (12.5ms)[0m  [1mSELECT "posts".* FROM "posts"[0m
  [1m[35mComment Load (14.9ms)[0m  SELECT "comments".* FROM "comments"  WHERE "comments"."post_id" = ?  [["post_id", 1]]


Started GET "/posts/1/comments" for 127.0.0.1 at 2014-04-27 02:48:45 +0800
  [1m[36mActiveRecord::SchemaMigration Load (13.7ms)[0m  [1mSELECT "schema_migrations".* FROM "schema_migrations"[0m
Processing by CommentsController#index as HTML
  Parameters: {"post_id"=>"1"}
  [1m[35mComment Load (0.6ms)[0m  SELECT "comments".* FROM "comments"
  Rendered comments/index.html.erb within layouts/application (9.2ms)
Completed 200 OK in 426ms (Views: 230.2ms | ActiveRecord: 0.9ms)


Started GET "/posts" for 127.0.0.1 at 2014-04-27 02:48:59 +0800
Processing by PostsController#index as HTML
  [1m[36mPost Load (9.9ms)[0m  [1mSELECT "posts".* FROM "posts"[0m
  Rendered posts/index.html.erb within layouts/application (16.5ms)
Completed 200 OK in 120ms (Views: 12.7ms | ActiveRecord: 10.2ms)


Started GET "/posts/1/comments" for 127.0.0.1 at 2014-04-27 02:49:04 +0800
Processing by CommentsController#index as HTML
  Parameters: {"post_id"=>"1"}
  [1m[35mComment Load (0.2ms)[0m  SELECT "comments".* FROM "comments"
  Rendered comments/index.html.erb within layouts/application (1.3ms)
Completed 200 OK in 7ms (Views: 5.8ms | ActiveRecord: 0.2ms)


Started GET "/assets/comments.css?body=1" for 127.0.0.1 at 2014-04-27 02:49:04 +0800


Started GET "/assets/jquery_ujs.js?body=1" for 127.0.0.1 at 2014-04-27 02:49:05 +0800


Started GET "/assets/turbolinks.js?body=1" for 127.0.0.1 at 2014-04-27 02:49:05 +0800


Started GET "/assets/application.css?body=1" for 127.0.0.1 at 2014-04-27 02:49:05 +0800


Started GET "/assets/posts.css?body=1" for 127.0.0.1 at 2014-04-27 02:49:05 +0800


Started GET "/assets/comments.js?body=1" for 127.0.0.1 at 2014-04-27 02:49:05 +0800


Started GET "/assets/scaffolds.css?body=1" for 127.0.0.1 at 2014-04-27 02:49:05 +0800


Started GET "/assets/jquery.js?body=1" for 127.0.0.1 at 2014-04-27 02:49:05 +0800


Started GET "/assets/posts.js?body=1" for 127.0.0.1 at 2014-04-27 02:49:05 +0800


Started GET "/assets/application.js?body=1" for 127.0.0.1 at 2014-04-27 02:49:05 +0800


Started GET "/comments/new" for 127.0.0.1 at 2014-04-27 02:49:18 +0800
Processing by CommentsController#new as HTML
  Rendered comments/_form.html.erb (353.5ms)
  Rendered comments/new.html.erb within layouts/application (451.4ms)
Completed 200 OK in 613ms (Views: 612.2ms | ActiveRecord: 0.0ms)


Started POST "/comments" for 127.0.0.1 at 2014-04-27 02:49:31 +0800
Processing by CommentsController#create as HTML
  Parameters: {"utf8"=>"✓", "authenticity_token"=>"EYgJbOlvmF/hkFUt0aJcchEsWWToOLhS1yoPmRnLzoU=", "comment"=>{"post_id"=>"1", "body"=>"second comment"}, "commit"=>"Create Comment"}
  [1m[36m (0.2ms)[0m  [1mbegin transaction[0m
  [1m[35mSQL (8.7ms)[0m  INSERT INTO "comments" ("body", "created_at", "post_id", "updated_at") VALUES (?, ?, ?, ?)  [["body", "second comment"], ["created_at", "2014-04-26 18:49:31.690197"], ["post_id", 1], ["updated_at", "2014-04-26 18:49:31.690197"]]
  [1m[36m (27.9ms)[0m  [1mcommit transaction[0m
Redirected to http://localhost:3000/comments/2
Completed 302 Found in 59ms (ActiveRecord: 36.7ms)


Started GET "/comments/2" for 127.0.0.1 at 2014-04-27 02:49:31 +0800
Processing by CommentsController#show as HTML
  Parameters: {"id"=>"2"}
  [1m[35mComment Load (0.2ms)[0m  SELECT  "comments".* FROM "comments"  WHERE "comments"."id" = ? LIMIT 1  [["id", 2]]
  Rendered comments/show.html.erb within layouts/application (1.0ms)
Completed 200 OK in 10ms (Views: 6.6ms | ActiveRecord: 0.2ms)


Started GET "/assets/application.css?body=1" for 127.0.0.1 at 2014-04-27 02:49:33 +0800


Started GET "/assets/comments.js?body=1" for 127.0.0.1 at 2014-04-27 02:49:33 +0800


Started GET "/assets/scaffolds.css?body=1" for 127.0.0.1 at 2014-04-27 02:49:33 +0800


Started GET "/assets/turbolinks.js?body=1" for 127.0.0.1 at 2014-04-27 02:49:33 +0800


Started GET "/assets/posts.js?body=1" for 127.0.0.1 at 2014-04-27 02:49:33 +0800


Started GET "/assets/jquery_ujs.js?body=1" for 127.0.0.1 at 2014-04-27 02:49:33 +0800


Started GET "/assets/jquery.js?body=1" for 127.0.0.1 at 2014-04-27 02:49:33 +0800


Started GET "/assets/application.js?body=1" for 127.0.0.1 at 2014-04-27 02:49:33 +0800


Started GET "/comments/2" for 127.0.0.1 at 2014-04-27 02:49:37 +0800
Processing by CommentsController#show as HTML
  Parameters: {"id"=>"2"}
  [1m[36mComment Load (0.1ms)[0m  [1mSELECT  "comments".* FROM "comments"  WHERE "comments"."id" = ? LIMIT 1[0m  [["id", 2]]
  Rendered comments/show.html.erb within layouts/application (0.3ms)
Completed 200 OK in 6ms (Views: 4.4ms | ActiveRecord: 0.1ms)


Started GET "/assets/posts.css?body=1" for 127.0.0.1 at 2014-04-27 02:49:37 +0800


Started GET "/assets/comments.css?body=1" for 127.0.0.1 at 2014-04-27 02:49:37 +0800


Started GET "/assets/turbolinks.js?body=1" for 127.0.0.1 at 2014-04-27 02:49:37 +0800


Started GET "/assets/application.css?body=1" for 127.0.0.1 at 2014-04-27 02:49:37 +0800


Started GET "/assets/scaffolds.css?body=1" for 127.0.0.1 at 2014-04-27 02:49:37 +0800


Started GET "/assets/jquery_ujs.js?body=1" for 127.0.0.1 at 2014-04-27 02:49:37 +0800


Started GET "/assets/comments.js?body=1" for 127.0.0.1 at 2014-04-27 02:49:37 +0800


Started GET "/assets/posts.js?body=1" for 127.0.0.1 at 2014-04-27 02:49:37 +0800


Started GET "/assets/jquery.js?body=1" for 127.0.0.1 at 2014-04-27 02:49:37 +0800


Started GET "/assets/application.js?body=1" for 127.0.0.1 at 2014-04-27 02:49:37 +0800


Started GET "/comments/2" for 127.0.0.1 at 2014-04-27 02:49:37 +0800
Processing by CommentsController#show as HTML
  Parameters: {"id"=>"2"}
  [1m[35mComment Load (0.1ms)[0m  SELECT  "comments".* FROM "comments"  WHERE "comments"."id" = ? LIMIT 1  [["id", 2]]
  Rendered comments/show.html.erb within layouts/application (0.3ms)
Completed 200 OK in 7ms (Views: 5.9ms | ActiveRecord: 0.1ms)


Started GET "/comments/2" for 127.0.0.1 at 2014-04-27 02:49:37 +0800
Processing by CommentsController#show as HTML
  Parameters: {"id"=>"2"}
  [1m[36mComment Load (0.1ms)[0m  [1mSELECT  "comments".* FROM "comments"  WHERE "comments"."id" = ? LIMIT 1[0m  [["id", 2]]
  Rendered comments/show.html.erb within layouts/application (0.4ms)
Completed 200 OK in 7ms (Views: 5.7ms | ActiveRecord: 0.1ms)


Started GET "/assets/comments.css?body=1" for 127.0.0.1 at 2014-04-27 02:49:37 +0800


Started GET "/assets/scaffolds.css?body=1" for 127.0.0.1 at 2014-04-27 02:49:37 +0800


Started GET "/assets/application.css?body=1" for 127.0.0.1 at 2014-04-27 02:49:37 +0800


Started GET "/assets/jquery_ujs.js?body=1" for 127.0.0.1 at 2014-04-27 02:49:37 +0800


Started GET "/assets/posts.css?body=1" for 127.0.0.1 at 2014-04-27 02:49:37 +0800


Started GET "/assets/jquery.js?body=1" for 127.0.0.1 at 2014-04-27 02:49:37 +0800


Started GET "/assets/turbolinks.js?body=1" for 127.0.0.1 at 2014-04-27 02:49:37 +0800


Started GET "/assets/comments.js?body=1" for 127.0.0.1 at 2014-04-27 02:49:37 +0800


Started GET "/assets/posts.js?body=1" for 127.0.0.1 at 2014-04-27 02:49:37 +0800


Started GET "/assets/application.js?body=1" for 127.0.0.1 at 2014-04-27 02:49:37 +0800


Started GET "/" for 127.0.0.1 at 2014-04-27 02:49:39 +0800
Processing by Rails::WelcomeController#index as HTML
  Rendered /Users/jerryee/.rvm/gems/ruby-2.1.1@global/gems/railties-4.1.0/lib/rails/templates/rails/welcome/index.html.erb (1.0ms)
Completed 200 OK in 4ms (Views: 3.4ms | ActiveRecord: 0.0ms)


Started GET "/posts/1/comments" for 127.0.0.1 at 2014-04-27 02:49:39 +0800
Processing by CommentsController#index as HTML
  Parameters: {"post_id"=>"1"}
  [1m[35mComment Load (0.1ms)[0m  SELECT "comments".* FROM "comments"
  Rendered comments/index.html.erb within layouts/application (1.5ms)
Completed 200 OK in 26ms (Views: 25.2ms | ActiveRecord: 0.1ms)


Started GET "/assets/comments.css?body=1" for 127.0.0.1 at 2014-04-27 02:49:39 +0800


Started GET "/assets/jquery.js?body=1" for 127.0.0.1 at 2014-04-27 02:49:39 +0800


Started GET "/assets/posts.css?body=1" for 127.0.0.1 at 2014-04-27 02:49:39 +0800


Started GET "/assets/jquery_ujs.js?body=1" for 127.0.0.1 at 2014-04-27 02:49:39 +0800


Started GET "/assets/application.css?body=1" for 127.0.0.1 at 2014-04-27 02:49:39 +0800


Started GET "/assets/scaffolds.css?body=1" for 127.0.0.1 at 2014-04-27 02:49:39 +0800


Started GET "/assets/turbolinks.js?body=1" for 127.0.0.1 at 2014-04-27 02:49:39 +0800


Started GET "/assets/posts.js?body=1" for 127.0.0.1 at 2014-04-27 02:49:39 +0800


Started GET "/assets/comments.js?body=1" for 127.0.0.1 at 2014-04-27 02:49:39 +0800


Started GET "/assets/application.js?body=1" for 127.0.0.1 at 2014-04-27 02:49:39 +0800


Started GET "/post" for 127.0.0.1 at 2014-04-27 02:49:40 +0800

ActionController::RoutingError (No route matches [GET] "/post"):
  actionpack (4.1.0) lib/action_dispatch/middleware/debug_exceptions.rb:21:in `call'
  actionpack (4.1.0) lib/action_dispatch/middleware/show_exceptions.rb:30:in `call'
  railties (4.1.0) lib/rails/rack/logger.rb:38:in `call_app'
  railties (4.1.0) lib/rails/rack/logger.rb:20:in `block in call'
  activesupport (4.1.0) lib/active_support/tagged_logging.rb:68:in `block in tagged'
  activesupport (4.1.0) lib/active_support/tagged_logging.rb:26:in `tagged'
  activesupport (4.1.0) lib/active_support/tagged_logging.rb:68:in `tagged'
  railties (4.1.0) lib/rails/rack/logger.rb:20:in `call'
  actionpack (4.1.0) lib/action_dispatch/middleware/request_id.rb:21:in `call'
  rack (1.5.2) lib/rack/methodoverride.rb:21:in `call'
  rack (1.5.2) lib/rack/runtime.rb:17:in `call'
  activesupport (4.1.0) lib/active_support/cache/strategy/local_cache_middleware.rb:26:in `call'
  rack (1.5.2) lib/rack/lock.rb:17:in `call'
  actionpack (4.1.0) lib/action_dispatch/middleware/static.rb:64:in `call'
  rack (1.5.2) lib/rack/sendfile.rb:112:in `call'
  railties (4.1.0) lib/rails/engine.rb:514:in `call'
  railties (4.1.0) lib/rails/application.rb:144:in `call'
  rack (1.5.2) lib/rack/lock.rb:17:in `call'
  rack (1.5.2) lib/rack/content_length.rb:14:in `call'
  rack (1.5.2) lib/rack/handler/webrick.rb:60:in `service'
  /Users/jerryee/.rvm/rubies/ruby-2.1.1/lib/ruby/2.1.0/webrick/httpserver.rb:138:in `service'
  /Users/jerryee/.rvm/rubies/ruby-2.1.1/lib/ruby/2.1.0/webrick/httpserver.rb:94:in `run'
  /Users/jerryee/.rvm/rubies/ruby-2.1.1/lib/ruby/2.1.0/webrick/server.rb:295:in `block in start_thread'


  Rendered /Users/jerryee/.rvm/gems/ruby-2.1.1@global/gems/actionpack-4.1.0/lib/action_dispatch/middleware/templates/rescues/_trace.html.erb (1.6ms)
  Rendered /Users/jerryee/.rvm/gems/ruby-2.1.1@global/gems/actionpack-4.1.0/lib/action_dispatch/middleware/templates/routes/_route.html.erb (4.0ms)
  Rendered /Users/jerryee/.rvm/gems/ruby-2.1.1@global/gems/actionpack-4.1.0/lib/action_dispatch/middleware/templates/routes/_table.html.erb (12.3ms)
  Rendered /Users/jerryee/.rvm/gems/ruby-2.1.1@global/gems/actionpack-4.1.0/lib/action_dispatch/middleware/templates/rescues/routing_error.html.erb within rescues/layout (56.0ms)


Started GET "/post/1/comments" for 127.0.0.1 at 2014-04-27 02:49:41 +0800

ActionController::RoutingError (No route matches [GET] "/post/1/comments"):
  actionpack (4.1.0) lib/action_dispatch/middleware/debug_exceptions.rb:21:in `call'
  actionpack (4.1.0) lib/action_dispatch/middleware/show_exceptions.rb:30:in `call'
  railties (4.1.0) lib/rails/rack/logger.rb:38:in `call_app'
  railties (4.1.0) lib/rails/rack/logger.rb:20:in `block in call'
  activesupport (4.1.0) lib/active_support/tagged_logging.rb:68:in `block in tagged'
  activesupport (4.1.0) lib/active_support/tagged_logging.rb:26:in `tagged'
  activesupport (4.1.0) lib/active_support/tagged_logging.rb:68:in `tagged'
  railties (4.1.0) lib/rails/rack/logger.rb:20:in `call'
  actionpack (4.1.0) lib/action_dispatch/middleware/request_id.rb:21:in `call'
  rack (1.5.2) lib/rack/methodoverride.rb:21:in `call'
  rack (1.5.2) lib/rack/runtime.rb:17:in `call'
  activesupport (4.1.0) lib/active_support/cache/strategy/local_cache_middleware.rb:26:in `call'
  rack (1.5.2) lib/rack/lock.rb:17:in `call'
  actionpack (4.1.0) lib/action_dispatch/middleware/static.rb:64:in `call'
  rack (1.5.2) lib/rack/sendfile.rb:112:in `call'
  railties (4.1.0) lib/rails/engine.rb:514:in `call'
  railties (4.1.0) lib/rails/application.rb:144:in `call'
  rack (1.5.2) lib/rack/lock.rb:17:in `call'
  rack (1.5.2) lib/rack/content_length.rb:14:in `call'
  rack (1.5.2) lib/rack/handler/webrick.rb:60:in `service'
  /Users/jerryee/.rvm/rubies/ruby-2.1.1/lib/ruby/2.1.0/webrick/httpserver.rb:138:in `service'
  /Users/jerryee/.rvm/rubies/ruby-2.1.1/lib/ruby/2.1.0/webrick/httpserver.rb:94:in `run'
  /Users/jerryee/.rvm/rubies/ruby-2.1.1/lib/ruby/2.1.0/webrick/server.rb:295:in `block in start_thread'


  Rendered /Users/jerryee/.rvm/gems/ruby-2.1.1@global/gems/actionpack-4.1.0/lib/action_dispatch/middleware/templates/rescues/_trace.html.erb (1.7ms)
  Rendered /Users/jerryee/.rvm/gems/ruby-2.1.1@global/gems/actionpack-4.1.0/lib/action_dispatch/middleware/templates/routes/_route.html.erb (3.2ms)
  Rendered /Users/jerryee/.rvm/gems/ruby-2.1.1@global/gems/actionpack-4.1.0/lib/action_dispatch/middleware/templates/routes/_table.html.erb (1.1ms)
  Rendered /Users/jerryee/.rvm/gems/ruby-2.1.1@global/gems/actionpack-4.1.0/lib/action_dispatch/middleware/templates/rescues/routing_error.html.erb within rescues/layout (33.7ms)


Started GET "/posts/1/comments" for 127.0.0.1 at 2014-04-27 02:49:45 +0800
Processing by CommentsController#index as HTML
  Parameters: {"post_id"=>"1"}
  [1m[36mComment Load (0.2ms)[0m  [1mSELECT "comments".* FROM "comments"[0m
  Rendered comments/index.html.erb within layouts/application (1.7ms)
Completed 200 OK in 8ms (Views: 6.7ms | ActiveRecord: 0.2ms)


Started GET "/assets/posts.css?body=1" for 127.0.0.1 at 2014-04-27 02:49:45 +0800


Started GET "/assets/comments.css?body=1" for 127.0.0.1 at 2014-04-27 02:49:45 +0800


Started GET "/assets/application.css?body=1" for 127.0.0.1 at 2014-04-27 02:49:45 +0800


Started GET "/assets/jquery_ujs.js?body=1" for 127.0.0.1 at 2014-04-27 02:49:45 +0800


Started GET "/assets/jquery.js?body=1" for 127.0.0.1 at 2014-04-27 02:49:45 +0800


Started GET "/assets/scaffolds.css?body=1" for 127.0.0.1 at 2014-04-27 02:49:45 +0800


Started GET "/assets/turbolinks.js?body=1" for 127.0.0.1 at 2014-04-27 02:49:45 +0800


Started GET "/assets/comments.js?body=1" for 127.0.0.1 at 2014-04-27 02:49:45 +0800


Started GET "/assets/posts.js?body=1" for 127.0.0.1 at 2014-04-27 02:49:45 +0800


Started GET "/assets/application.js?body=1" for 127.0.0.1 at 2014-04-27 02:49:45 +0800


Started GET "/posts/1/comments" for 127.0.0.1 at 2014-04-27 02:49:45 +0800
Processing by CommentsController#index as HTML
  Parameters: {"post_id"=>"1"}
  [1m[35mComment Load (0.2ms)[0m  SELECT "comments".* FROM "comments"
  Rendered comments/index.html.erb within layouts/application (3.1ms)
Completed 200 OK in 10ms (Views: 9.2ms | ActiveRecord: 0.2ms)


Started GET "/assets/scaffolds.css?body=1" for 127.0.0.1 at 2014-04-27 02:49:45 +0800


Started GET "/assets/turbolinks.js?body=1" for 127.0.0.1 at 2014-04-27 02:49:45 +0800


Started GET "/assets/application.css?body=1" for 127.0.0.1 at 2014-04-27 02:49:45 +0800


Started GET "/assets/jquery_ujs.js?body=1" for 127.0.0.1 at 2014-04-27 02:49:45 +0800


Started GET "/assets/comments.js?body=1" for 127.0.0.1 at 2014-04-27 02:49:45 +0800


Started GET "/assets/jquery.js?body=1" for 127.0.0.1 at 2014-04-27 02:49:45 +0800


Started GET "/assets/posts.js?body=1" for 127.0.0.1 at 2014-04-27 02:49:45 +0800


Started GET "/assets/application.js?body=1" for 127.0.0.1 at 2014-04-27 02:49:45 +0800


Started GET "/posts/1/comments" for 127.0.0.1 at 2014-04-27 03:06:23 +0800
  [1m[36mActiveRecord::SchemaMigration Load (0.2ms)[0m  [1mSELECT "schema_migrations".* FROM "schema_migrations"[0m
Processing by CommentsController#index as HTML
  Parameters: {"post_id"=>"1"}
  [1m[35mComment Load (0.3ms)[0m  SELECT "comments".* FROM "comments"
  Rendered comments/index.html.erb within layouts/application (9.5ms)
Completed 200 OK in 269ms (Views: 219.4ms | ActiveRecord: 0.6ms)


Started GET "/assets/scaffolds.css?body=1" for 127.0.0.1 at 2014-04-27 03:06:24 +0800


Started GET "/assets/jquery.js?body=1" for 127.0.0.1 at 2014-04-27 03:06:24 +0800


Started GET "/assets/application.css?body=1" for 127.0.0.1 at 2014-04-27 03:06:24 +0800


Started GET "/assets/posts.js?body=1" for 127.0.0.1 at 2014-04-27 03:06:24 +0800


Started GET "/assets/jquery_ujs.js?body=1" for 127.0.0.1 at 2014-04-27 03:06:24 +0800


Started GET "/assets/turbolinks.js?body=1" for 127.0.0.1 at 2014-04-27 03:06:24 +0800


Started GET "/assets/comments.js?body=1" for 127.0.0.1 at 2014-04-27 03:06:24 +0800


Started GET "/assets/application.js?body=1" for 127.0.0.1 at 2014-04-27 03:06:24 +0800


Started GET "/comments/new" for 127.0.0.1 at 2014-04-27 03:06:29 +0800
Processing by CommentsController#new as HTML
  Rendered comments/_form.html.erb (115.5ms)
  Rendered comments/new.html.erb within layouts/application (130.2ms)
Completed 200 OK in 174ms (Views: 173.0ms | ActiveRecord: 0.0ms)


Started POST "/comments" for 127.0.0.1 at 2014-04-27 03:06:38 +0800
Processing by CommentsController#create as HTML
  Parameters: {"utf8"=>"✓", "authenticity_token"=>"EYgJbOlvmF/hkFUt0aJcchEsWWToOLhS1yoPmRnLzoU=", "comment"=>{"post_id"=>"1", "body"=>"Hi You Noob"}, "commit"=>"Create Comment"}
  [1m[36m (0.1ms)[0m  [1mbegin transaction[0m
  [1m[35mSQL (10.8ms)[0m  INSERT INTO "comments" ("body", "created_at", "post_id", "updated_at") VALUES (?, ?, ?, ?)  [["body", "Hi You Noob"], ["created_at", "2014-04-26 19:06:38.033622"], ["post_id", 1], ["updated_at", "2014-04-26 19:06:38.033622"]]
  [1m[36m (2.5ms)[0m  [1mcommit transaction[0m
Redirected to http://localhost:3000/comments/3
Completed 302 Found in 55ms (ActiveRecord: 13.4ms)


Started GET "/comments/3" for 127.0.0.1 at 2014-04-27 03:06:38 +0800
Processing by CommentsController#show as HTML
  Parameters: {"id"=>"3"}
  [1m[35mComment Load (0.2ms)[0m  SELECT  "comments".* FROM "comments"  WHERE "comments"."id" = ? LIMIT 1  [["id", 3]]
  Rendered comments/show.html.erb within layouts/application (1.1ms)
Completed 200 OK in 31ms (Views: 29.0ms | ActiveRecord: 0.2ms)


Started GET "/assets/scaffolds.css?body=1" for 127.0.0.1 at 2014-04-27 03:06:38 +0800


Started GET "/assets/jquery_ujs.js?body=1" for 127.0.0.1 at 2014-04-27 03:06:38 +0800


Started GET "/assets/application.css?body=1" for 127.0.0.1 at 2014-04-27 03:06:38 +0800


Started GET "/assets/jquery.js?body=1" for 127.0.0.1 at 2014-04-27 03:06:38 +0800


Started GET "/assets/comments.js?body=1" for 127.0.0.1 at 2014-04-27 03:06:38 +0800


Started GET "/assets/turbolinks.js?body=1" for 127.0.0.1 at 2014-04-27 03:06:38 +0800


Started GET "/assets/posts.js?body=1" for 127.0.0.1 at 2014-04-27 03:06:38 +0800


Started GET "/assets/application.js?body=1" for 127.0.0.1 at 2014-04-27 03:06:38 +0800


Started GET "/posts/1/comments" for 127.0.0.1 at 2014-04-27 03:06:51 +0800
Processing by CommentsController#index as HTML
  Parameters: {"post_id"=>"1"}
  [1m[36mComment Load (0.1ms)[0m  [1mSELECT "comments".* FROM "comments"[0m
  Rendered comments/index.html.erb within layouts/application (1.8ms)
Completed 200 OK in 6ms (Views: 5.5ms | ActiveRecord: 0.1ms)


Started GET "/assets/scaffolds.css?body=1" for 127.0.0.1 at 2014-04-27 03:06:51 +0800


Started GET "/assets/jquery.js?body=1" for 127.0.0.1 at 2014-04-27 03:06:51 +0800


Started GET "/assets/application.css?body=1" for 127.0.0.1 at 2014-04-27 03:06:51 +0800


Started GET "/assets/turbolinks.js?body=1" for 127.0.0.1 at 2014-04-27 03:06:51 +0800


Started GET "/assets/posts.js?body=1" for 127.0.0.1 at 2014-04-27 03:06:51 +0800


Started GET "/assets/jquery_ujs.js?body=1" for 127.0.0.1 at 2014-04-27 03:06:51 +0800


Started GET "/assets/comments.js?body=1" for 127.0.0.1 at 2014-04-27 03:06:51 +0800


Started GET "/assets/application.js?body=1" for 127.0.0.1 at 2014-04-27 03:06:51 +0800


Started GET "/posts" for 127.0.0.1 at 2014-04-27 03:06:59 +0800
Processing by PostsController#index as HTML
  [1m[35mPost Load (0.2ms)[0m  SELECT "posts".* FROM "posts"
  Rendered posts/index.html.erb within layouts/application (6.1ms)
Completed 200 OK in 32ms (Views: 11.7ms | ActiveRecord: 0.4ms)


Started GET "/assets/application.css?body=1" for 127.0.0.1 at 2014-04-27 03:06:59 +0800


Started GET "/assets/turbolinks.js?body=1" for 127.0.0.1 at 2014-04-27 03:06:59 +0800


Started GET "/assets/comments.js?body=1" for 127.0.0.1 at 2014-04-27 03:06:59 +0800


Started GET "/assets/jquery_ujs.js?body=1" for 127.0.0.1 at 2014-04-27 03:06:59 +0800


Started GET "/assets/posts.js?body=1" for 127.0.0.1 at 2014-04-27 03:06:59 +0800


Started GET "/assets/jquery.js?body=1" for 127.0.0.1 at 2014-04-27 03:06:59 +0800


Started GET "/assets/scaffolds.css?body=1" for 127.0.0.1 at 2014-04-27 03:06:59 +0800


Started GET "/assets/application.js?body=1" for 127.0.0.1 at 2014-04-27 03:06:59 +0800


Started GET "/posts/new" for 127.0.0.1 at 2014-04-27 03:07:19 +0800
Processing by PostsController#new as HTML
  Rendered posts/_form.html.erb (3.4ms)
  Rendered posts/new.html.erb within layouts/application (6.0ms)
Completed 200 OK in 46ms (Views: 44.8ms | ActiveRecord: 0.0ms)


Started POST "/posts" for 127.0.0.1 at 2014-04-27 03:07:27 +0800
Processing by PostsController#create as HTML
  Parameters: {"utf8"=>"✓", "authenticity_token"=>"EYgJbOlvmF/hkFUt0aJcchEsWWToOLhS1yoPmRnLzoU=", "post"=>{"title"=>"My New Post", "body"=>"Hi 2"}, "commit"=>"Create Post"}
  [1m[36m (0.1ms)[0m  [1mbegin transaction[0m
  [1m[35mSQL (0.4ms)[0m  INSERT INTO "posts" ("body", "created_at", "title", "updated_at") VALUES (?, ?, ?, ?)  [["body", "Hi 2"], ["created_at", "2014-04-26 19:07:27.791898"], ["title", "My New Post"], ["updated_at", "2014-04-26 19:07:27.791898"]]
  [1m[36m (5.8ms)[0m  [1mcommit transaction[0m
Redirected to http://localhost:3000/posts/2
Completed 302 Found in 9ms (ActiveRecord: 6.2ms)


Started GET "/posts/2" for 127.0.0.1 at 2014-04-27 03:07:27 +0800
Processing by PostsController#show as HTML
  Parameters: {"id"=>"2"}
  [1m[35mPost Load (0.2ms)[0m  SELECT  "posts".* FROM "posts"  WHERE "posts"."id" = ? LIMIT 1  [["id", 2]]
  Rendered posts/show.html.erb within layouts/application (1.0ms)
Completed 200 OK in 37ms (Views: 35.7ms | ActiveRecord: 0.2ms)


Started GET "/assets/scaffolds.css?body=1" for 127.0.0.1 at 2014-04-27 03:07:27 +0800


Started GET "/assets/application.css?body=1" for 127.0.0.1 at 2014-04-27 03:07:27 +0800


Started GET "/assets/jquery.js?body=1" for 127.0.0.1 at 2014-04-27 03:07:27 +0800


Started GET "/assets/posts.js?body=1" for 127.0.0.1 at 2014-04-27 03:07:27 +0800


Started GET "/assets/turbolinks.js?body=1" for 127.0.0.1 at 2014-04-27 03:07:27 +0800


Started GET "/assets/comments.js?body=1" for 127.0.0.1 at 2014-04-27 03:07:27 +0800


Started GET "/assets/jquery_ujs.js?body=1" for 127.0.0.1 at 2014-04-27 03:07:27 +0800


Started GET "/assets/application.js?body=1" for 127.0.0.1 at 2014-04-27 03:07:27 +0800


Started GET "/posts" for 127.0.0.1 at 2014-04-27 03:07:40 +0800
Processing by PostsController#index as HTML
  [1m[36mPost Load (0.1ms)[0m  [1mSELECT "posts".* FROM "posts"[0m
  Rendered posts/index.html.erb within layouts/application (2.0ms)
Completed 200 OK in 8ms (Views: 7.0ms | ActiveRecord: 0.1ms)


Started GET "/posts/new" for 127.0.0.1 at 2014-04-27 03:07:42 +0800
Processing by PostsController#new as HTML
  Rendered posts/_form.html.erb (3.1ms)
  Rendered posts/new.html.erb within layouts/application (4.3ms)
Completed 200 OK in 10ms (Views: 9.6ms | ActiveRecord: 0.0ms)


Started POST "/posts" for 127.0.0.1 at 2014-04-27 03:07:57 +0800
Processing by PostsController#create as HTML
  Parameters: {"utf8"=>"✓", "authenticity_token"=>"EYgJbOlvmF/hkFUt0aJcchEsWWToOLhS1yoPmRnLzoU=", "post"=>{"title"=>"", "body"=>"Post with no title"}, "commit"=>"Create Post"}
  [1m[35m (0.1ms)[0m  begin transaction
  [1m[36m (0.1ms)[0m  [1mrollback transaction[0m
  Rendered posts/_form.html.erb (5.2ms)
  Rendered posts/new.html.erb within layouts/application (6.8ms)
Completed 200 OK in 18ms (Views: 13.9ms | ActiveRecord: 0.2ms)


Started GET "/assets/scaffolds.css?body=1" for 127.0.0.1 at 2014-04-27 03:07:57 +0800


Started GET "/assets/jquery.js?body=1" for 127.0.0.1 at 2014-04-27 03:07:57 +0800


Started GET "/assets/turbolinks.js?body=1" for 127.0.0.1 at 2014-04-27 03:07:57 +0800


Started GET "/assets/jquery_ujs.js?body=1" for 127.0.0.1 at 2014-04-27 03:07:57 +0800


Started GET "/assets/comments.js?body=1" for 127.0.0.1 at 2014-04-27 03:07:57 +0800


Started GET "/assets/application.css?body=1" for 127.0.0.1 at 2014-04-27 03:07:57 +0800


Started GET "/assets/posts.js?body=1" for 127.0.0.1 at 2014-04-27 03:07:57 +0800


Started GET "/assets/application.js?body=1" for 127.0.0.1 at 2014-04-27 03:07:57 +0800
